<?xml version="1.0" encoding="utf-8"?>
<!-- Generator: Adobe Illustrator 16.0.0, SVG Export Plug-In . SVG Version: 6.00 Build 0)  -->
<!DOCTYPE svg PUBLIC "-//W3C//DTD SVG 1.1//EN" "http://www.w3.org/Graphics/SVG/1.1/DTD/svg11.dtd">
<svg version="1.1" id="Capa_1" xmlns="http://www.w3.org/2000/svg" xmlns:xlink="http://www.w3.org/1999/xlink" x="0px" y="0px"
	 width="512px" height="512px" viewBox="0 0 512 512" enable-background="new 0 0 512 512" xml:space="preserve">
<g>
	<path fill-rule="evenodd" clip-rule="evenodd" fill="none" d="M286.225,221.851c7.78,17.095,11.679,32.162,28.916,37.21
		c21.307,6.238,42.161,13.994,63.334,20.711c15.801,5.014,29.613-1.014,34.298-14.332c4.896-13.924-2.566-27.204-18.973-32.93
		c-15.035-5.245-30.124-10.386-45.39-14.892c-7.963-2.35-12.687-6.793-15.846-14.435c-8.646-20.916-17.852-41.6-26.975-62.313
		c-12.237-27.772-36.97-38.415-64.953-27.674c-26.608,10.213-53.042,20.879-79.589,31.256c-5.975,2.338-12.085,4.899-14.898,10.867
		c-12.149,25.779-23.633,51.903-32.681,78.918c-4.024,12.011,3.397,23.892,14.991,28.32c11.56,4.414,23.884-0.059,30.181-11.168
		c1.642-2.898,2.739-6.112,3.984-9.221c6.236-15.563,12.612-31.075,18.59-46.737c3.79-9.934,13.237-13.988,20.882-12.277
		c5.911,1.324,0.883,10.982-0.234,16.583c-11.076,55.468-22.615,110.846-33.779,166.297c-1.467,7.283-4.641,13.238-9.295,18.859
		c-22.996,27.766-45.945,55.574-68.665,83.566c-11.27,13.885-10.922,28.484,0.232,37.961c11.143,9.467,26.527,6.443,38.17-7.652
		c13.348-16.164,25.535-33.439,40.098-48.41c30.712-31.576,52.073-67.191,55.293-112.084c0.841-11.719,6.154-10.473,13.635-4.818
		c12.708,9.605,25.441,19.234,38.755,27.951c8.188,5.365,11.516,11.186,11.206,21.453c-0.909,30.582-0.368,61.209-0.285,91.816
		c0.016,4.596,0.354,9.23,1.018,13.777c2.217,15.084,12.567,24.307,26.08,23.498c13.048-0.779,23.188-11.637,23.307-26.521
		c0.318-40.67-0.113-81.346,0.29-122.016c0.131-13.043-4.798-22.297-15.39-29.625c-14.479-10.012-28.389-20.838-42.706-31.09
		c-5.205-3.73-8.473-7.883-7.063-14.697C277.068,267.152,281.261,246.278,286.225,221.851z M325.495,51.114
		c0.05-27.024-21.743-48.837-48.579-48.616c-25.99,0.214-47.876,22.218-48.031,48.292c-0.153,25.901,21.775,48.216,47.736,48.579
		C303.545,99.743,325.441,78.125,325.495,51.114z"/>
	<path fill-rule="evenodd" clip-rule="evenodd" d="M286.225,221.851c-4.964,24.428-9.156,45.302-13.461,66.151
		c-1.41,6.814,1.857,10.967,7.063,14.697c14.317,10.252,28.227,21.078,42.706,31.09c10.592,7.328,15.521,16.582,15.39,29.625
		c-0.403,40.67,0.028,81.346-0.29,122.016c-0.118,14.885-10.259,25.742-23.307,26.521c-13.513,0.809-23.863-8.414-26.08-23.498
		c-0.664-4.547-1.002-9.182-1.018-13.777c-0.083-30.607-0.624-61.234,0.285-91.816c0.31-10.268-3.019-16.088-11.206-21.453
		c-13.314-8.717-26.047-18.346-38.755-27.951c-7.481-5.654-12.794-6.9-13.635,4.818c-3.22,44.893-24.581,80.508-55.293,112.084
		c-14.563,14.971-26.75,32.246-40.098,48.41c-11.644,14.096-27.027,17.119-38.17,7.652c-11.155-9.477-11.502-24.076-0.232-37.961
		c22.719-27.992,45.669-55.801,68.665-83.566c4.655-5.621,7.829-11.576,9.295-18.859c11.165-55.451,22.704-110.829,33.779-166.297
		c1.117-5.601,6.145-15.258,0.234-16.583c-7.645-1.711-17.092,2.343-20.882,12.277c-5.978,15.662-12.354,31.173-18.59,46.737
		c-1.246,3.108-2.343,6.322-3.984,9.221c-6.296,11.11-18.621,15.583-30.181,11.168c-11.594-4.428-19.015-16.309-14.991-28.32
		c9.048-27.015,20.532-53.139,32.681-78.918c2.813-5.968,8.923-8.529,14.898-10.867c26.547-10.377,52.981-21.043,79.589-31.256
		c27.983-10.741,52.716-0.098,64.953,27.674c9.123,20.713,18.328,41.397,26.975,62.313c3.159,7.642,7.883,12.085,15.846,14.435
		c15.266,4.506,30.354,9.647,45.39,14.892c16.406,5.727,23.868,19.006,18.973,32.93c-4.685,13.318-18.497,19.346-34.298,14.332
		c-21.173-6.717-42.027-14.473-63.334-20.711C297.903,254.012,294.005,238.945,286.225,221.851z"/>
	<path fill-rule="evenodd" clip-rule="evenodd" d="M325.495,51.114c-0.054,27.011-21.95,48.629-48.874,48.255
		c-25.96-0.363-47.889-22.678-47.736-48.579c0.155-26.075,22.041-48.079,48.031-48.292C303.752,2.276,325.545,24.089,325.495,51.114
		z"/>
</g>
</svg>
