{
    "tipoDocumento": [
        {
          "value": "CC",
          "label": "Cédula"
        },
        {
          "value": "TI",
          "label": "Tarjeta de identidad"
        },
        {
          "value": "CX",
          "label": "Cédula de extranjería"
        }
    ],
    "paises": [
        {"pais":"Afganistán"},
        {"pais":"Albania"},
        {"pais":"Alemania"},
        {"pais":"Andorra"},
        {"pais":"Angola"},
        {"pais":"Antigua y Barbuda"},
        {"pais":"Arabia Saudita"},
        {"pais":"Argelia"},
        {"pais":"Argentina"},
        {"pais":"Armenia"},
        {"pais":"Australia"},
        {"pais":"Austria"},
        {"pais":"Azerbaiyán"},
        {"pais":"Bahamas"},
        {"pais":"Bangladés"},
        {"pais":"Barbados"},
        {"pais":"Baréin"},
        {"pais":"Bélgica"},
        {"pais":"Belice"},
        {"pais":"Benín"},
        {"pais":"Bielorrusia"},
        {"pais":"Birmania"},
        {"pais":"Bolivia"},
        {"pais":"Bosnia y Herzegovina"},
        {"pais":"Botsuana"},
        {"pais":"Brasil"},
        {"pais":"Brunéi"},
        {"pais":"Bulgaria"},
        {"pais":"Burkina Faso"},
        {"pais":"Burundi"},
        {"pais":"Bután"},
        {"pais":"Cabo Verde"},
        {"pais":"Camboya"},
        {"pais":"Camerún"},
        {"pais":"Canadá"},
        {"pais":"Catar"},
        {"pais":"Chad"},
        {"pais":"Chile"},
        {"pais":"China"},
        {"pais":"Chipre"},
        {"pais":"Ciudad del Vaticano"},
        {"pais":"Colombia"},
        {"pais":"Comoras"},
        {"pais":"Corea del Norte"},
        {"pais":"Corea del Sur"},
        {"pais":"Costa de Marfil"},
        {"pais":"Costa Rica"},
        {"pais":"Croacia"},
        {"pais":"Cuba"},
        {"pais":"Dinamarca"},
        {"pais":"Dominica"},
        {"pais":"Ecuador"},
        {"pais":"Egipto"},
        {"pais":"El Salvador"},
        {"pais":"Emiratos Árabes Unidos"},
        {"pais":"Eritrea"},
        {"pais":"Eslovaquia"},
        {"pais":"Eslovenia"},
        {"pais":"España"},
        {"pais":"Estados Unidos"},
        {"pais":"Estonia"},
        {"pais":"Etiopía"},
        {"pais":"Filipinas"},
        {"pais":"Finlandia"},
        {"pais":"Fiyi"},
        {"pais":"Francia"},
        {"pais":"Gabón"},
        {"pais":"Gambia"},
        {"pais":"Georgia"},
        {"pais":"Ghana"},
        {"pais":"Granada"},
        {"pais":"Grecia"},
        {"pais":"Guatemala"},
        {"pais":"Guyana"},
        {"pais":"Guinea"},
        {"pais":"Guinea ecuatorial"},
        {"pais":"Guinea-Bisáu"},
        {"pais":"Haití"},
        {"pais":"Honduras"},
        {"pais":"Hungría"},
        {"pais":"India"},
        {"pais":"Indonesia"},
        {"pais":"Irak"},
        {"pais":"Irán"},
        {"pais":"Irlanda"},
        {"pais":"Islandia"},
        {"pais":"Islas Marshall"},
        {"pais":"Islas Salomón"},
        {"pais":"Israel"},
        {"pais":"Italia"},
        {"pais":"Jamaica"},
        {"pais":"Japón"},
        {"pais":"Jordania"},
        {"pais":"Kazajistán"},
        {"pais":"Kenia"},
        {"pais":"Kirguistán"},
        {"pais":"Kiribati"},
        {"pais":"Kuwait"},
        {"pais":"Laos"},
        {"pais":"Lesoto"},
        {"pais":"Letonia"},
        {"pais":"Líbano"},
        {"pais":"Liberia"},
        {"pais":"Libia"},
        {"pais":"Liechtenstein"},
        {"pais":"Lituania"},
        {"pais":"Luxemburgo"},
        {"pais":"Macedonia del Norte"},
        {"pais":"Madagascar"},
        {"pais":"Malasia"},
        {"pais":"Malaui"},
        {"pais":"Maldivas"},
        {"pais":"Malí"},
        {"pais":"Malta"},
        {"pais":"Marruecos"},
        {"pais":"Mauricio"},
        {"pais":"Mauritania"},
        {"pais":"México"},
        {"pais":"Micronesia"},
        {"pais":"Moldavia"},
        {"pais":"Mónaco"},
        {"pais":"Mongolia"},
        {"pais":"Montenegro"},
        {"pais":"Mozambique"},
        {"pais":"Namibia"},
        {"pais":"Nauru"},
        {"pais":"Nepal"},
        {"pais":"Nicaragua"},
        {"pais":"Níger"},
        {"pais":"Nigeria"},
        {"pais":"Noruega"},
        {"pais":"Nueva Zelanda"},
        {"pais":"Omán"},
        {"pais":"Países Bajos"},
        {"pais":"Pakistán"},
        {"pais":"Palaos"},
        {"pais":"Panamá"},
        {"pais":"Papúa Nueva Guinea"},
        {"pais":"Paraguay"},
        {"pais":"Perú"},
        {"pais":"Polonia"},
        {"pais":"Portugal"},
        {"pais":"Reino Unido"},
        {"pais":"República Centroafricana"},
        {"pais":"República Checa"},
        {"pais":"República del Congo"},
        {"pais":"República Democrática del Congo"},
        {"pais":"República Dominicana"},
        {"pais":"Ruanda"},
        {"pais":"Rumanía"},
        {"pais":"Rusia"},
        {"pais":"Samoa"},
        {"pais":"San Cristóbal y Nieves"},
        {"pais":"San Marino"},
        {"pais":"San Vicente y las Granadinas"},
        {"pais":"Santa Lucía"},
        {"pais":"Santo Tomé y Príncipe"},
        {"pais":"Senegal"},
        {"pais":"Serbia"},
        {"pais":"Seychelles"},
        {"pais":"Sierra Leona"},
        {"pais":"Singapur"},
        {"pais":"Siria"},
        {"pais":"Somalia"},
        {"pais":"Sri Lanka"},
        {"pais":"Suazilandia"},
        {"pais":"Sudáfrica"},
        {"pais":"Sudán"},
        {"pais":"Sudán del Sur"},
        {"pais":"Suecia"},
        {"pais":"Suiza"},
        {"pais":"Surinam"},
        {"pais":"Tailandia"},
        {"pais":"Tanzania"},
        {"pais":"Tayikistán"},
        {"pais":"Timor Oriental"},
        {"pais":"Togo"},
        {"pais":"Tonga"},
        {"pais":"Trinidad y Tobago"},
        {"pais":"Túnez"},
        {"pais":"Turkmenistán"},
        {"pais":"Turquía"},
        {"pais":"Tuvalu"},
        {"pais":"Ucrania"},
        {"pais":"Uganda"},
        {"pais":"Uruguay"},
        {"pais":"Uzbekistán"},
        {"pais":"Vanuatu"},
        {"pais":"Venezuela"},
        {"pais":"Vietnam"},
        {"pais":"Yemen"},
        {"pais":"Yibuti"},
        {"pais":"Zambia"},
        {"pais":"Zimbabue"}
    ]
}